C:\Users\adria\OneDrive - tgm - Die Schule der Technik\Schule\5BHIT\Diplomprojekt\Crawler\src\main\java\com\DatabaseSaver.java
C:\Users\adria\OneDrive - tgm - Die Schule der Technik\Schule\5BHIT\Diplomprojekt\Crawler\src\main\java\com\Crawler.java
C:\Users\adria\OneDrive - tgm - Die Schule der Technik\Schule\5BHIT\Diplomprojekt\Crawler\src\main\java\com\LinkFilter.java
C:\Users\adria\OneDrive - tgm - Die Schule der Technik\Schule\5BHIT\Diplomprojekt\Crawler\src\main\java\com\DocGetter.java
C:\Users\adria\OneDrive - tgm - Die Schule der Technik\Schule\5BHIT\Diplomprojekt\Crawler\src\main\java\com\FileWriter.java
